The {traits.build} data standard, R package, and workflow - 29 AusTraits tutorial
…
29.4 The database structure

The {traits.build} R package is the workflow that builds AusTraits from its component datasets.

The database is output as a collection of relational tables, as described here.

Traits table

The core AusTraits table is the traits table. It is in “long” format, with each row documenting a single trait measurement.

austraits$traits

# A tibble: 1,253,250 × 24
   dataset_id taxon_name      observation_id trait_name value unit  entity_type value_type basis_of_value replicates basis_of_record life_stage population_id individual_id temporal_id source_id location_id entity_context_id
   <chr>      <chr>           <chr>          <chr>      <chr> <chr> <chr>       <chr>      <chr>          <chr>      <chr>           <chr>      <chr>         <chr>         <chr>       <chr>     <chr>       <chr>            
 1 ABRS_1981  Acanthocarpus … 0001           leaf_comp… simp… NA    species     mode       expert_score   NA         preserved_spec… adult      NA            NA            NA          NA        NA          NA               
 2 ABRS_1981  Acanthocarpus … 0001           leaf_leng… 3     mm    species     minimum    measurement    NA         preserved_spec… adult      NA            NA            NA          NA        NA          NA               
 3 ABRS_1981  Acanthocarpus … 0001           leaf_leng… 15    mm    species     maximum    measurement    NA         preserved_spec… adult      NA            NA            NA          NA        NA          NA               
 4 ABRS_1981  Acanthocarpus … 0001           seed_heig… 3     mm    species     maximum    measurement    NA         preserved_spec… adult      NA            NA            NA          NA        NA          NA               
 5 ABRS_1981  Acanthocarpus … 0001           seed_leng… 3     mm    species     maximum    measurement    NA         preserved_spec… adult      NA            NA            NA          NA        NA          NA               
 6 ABRS_1981  Acanthocarpus … 0001           seed_width 3     mm    species     maximum    measurement    NA         preserved_spec… adult      NA            NA            NA          NA        NA          NA               
 7 ABRS_1981  Acanthocarpus … 0002           leaf_comp… simp… NA    species     mode       expert_score   NA         preserved_spec… adult      NA            NA            NA          NA        NA          NA               
 8 ABRS_1981  Acanthocarpus … 0002           leaf_leng… 4     mm    species     minimum    measurement    NA         preserved_spec… adult      NA            NA            NA          NA        NA          NA               
 9 ABRS_1981  Acanthocarpus … 0002           leaf_leng… 12    mm    species     maximum    measurement    NA         preserved_spec… adult      NA            NA            NA          NA        NA          NA               
10 ABRS_1981  Acanthocarpus … 0002           seed_leng… 4     mm    species     maximum    measurement    NA         preserved_spec… adult      NA            NA            NA          NA        NA          NA               
# ℹ 1,253,240 more rows
# ℹ 6 more variables: plot_id <chr>, treatment_id <chr>, collection_date <chr>, measurement_remarks <chr>, method_id <chr>, original_name <chr>
# ℹ Use `print(n = ...)` to see more rows
…
