The {traits.build} data standard, R package, and workflow - 27 The austraits package
…
Pivot wider <=3.0.2

In AusTraits <=3.0.2, some studies will have multiple observations for some traits, e.g. huber values. This can prevent pivoting from long format to wide. There are two ways to collapse multiple observations. The first option bind_trait_values concatenates the observations into a single string, thereby retaining all information.

Alternatively, if you don’t want to bind the trait values, you can give summarise_trait_means a go, which computes means with multiple observations. Note that this method condenses the traits table and you won’t be able to revert it back unless you load_austraits again

bind_trait_values

data_wide_bound <- data_falster_studies$traits %>%
  bind_trait_values() %>% # Joining multiple obs with `--`
  trait_pivot_wider() #Pivot wide

data_wide_bound$value # The trait values table

#> # A tibble: 103 × 17
#>    dataset_id   taxon_name      site_name context_name observation_id leaf_angle
#>    <chr>        <chr>           <chr>     <chr>        <chr>          <chr>     
#>  1 Falster_2003 Acacia myrtifo… Ku-ring-… <NA>         Falster_2003_… 66.1      
#>  2 Falster_2003 Acacia suaveol… Ku-ring-… <NA>         Falster_2003_… 71.7      
#>  3 Falster_2003 Angophora hisp… Ku-ring-… <NA>         Falster_2003_… 50.8      
#>  4 Falster_2003 Banksia margin… Ku-ring-… <NA>         Falster_2003_… 53.1      
#>  5 Falster_2003 Banksia oblong… Ku-ring-… <NA>         Falster_2003_… 45        
#>  6 Falster_2003 Boronia pinnata Ku-ring-… <NA>         Falster_2003_… 43.9      
#>  7 Falster_2003 Conospermum lo… Ku-ring-… <NA>         Falster_2003_… 72.3      
#>  8 Falster_2003 Epacris pulche… Ku-ring-… <NA>         Falster_2003_… 42.9      
#>  9 Falster_2003 Eriostemon aus… Ku-ring-… <NA>         Falster_2003_… 62.1      
#> 10 Falster_2003 Corymbia gummi… Ku-ring-… <NA>         Falster_2003_… 59.3      
#> # ℹ 93 more rows
#> # ℹ 11 more variables: leaf_area <chr>, leaf_compoundness <chr>,
#> #   branch_mass_fraction <chr>, huber_value <chr>, leaf_N_per_dry_mass <chr>,
#> #   seed_mass <chr>, specific_leaf_area <chr>, wood_density <chr>,
#> #   fire_response <chr>, plant_height <chr>, original_name <chr>

# Check out the 'bounded' trait values
data_wide_bound$value %>% 
  select(-c(1:5)) %>% #Excluding values that are not traits so we can see which columns contains bounded values
  filter_all(.vars_predicate = any_vars(str_detect(., "--"))) 

#> # A tibble: 55 × 12
#>    leaf_angle leaf_area leaf_compoundness branch_mass_fraction huber_value      
#>    <chr>      <chr>     <chr>             <chr>                <chr>            
#>  1 <NA>       2786      <NA>              0.67                 0.00033590863285…
#>  2 <NA>       14302     <NA>              0.48                 0.00013227513227…
#>  3 <NA>       6820      <NA>              0.42                 0.00023041474654…
#>  4 <NA>       3209      <NA>              0.41                 0.00050175614651…
#>  5 <NA>       10682     <NA>              0.47                 0.00046816479400…
#>  6 <NA>       6955      <NA>              0.58                 0.00023803856224…
#>  7 <NA>       5228      <NA>              0.58                 0.00059311981020…
#>  8 <NA>       6806      <NA>              0.42                 0.00016644474034…
#>  9 <NA>       11157     <NA>              0                    0.00020092425155…
#> 10 <NA>       3401      <NA>              0.34                 0.00023142791020…
#> # ℹ 45 more rows
#> # ℹ 7 more variables: leaf_N_per_dry_mass <chr>, seed_mass <chr>,
#> #   specific_leaf_area <chr>, wood_density <chr>, fire_response <chr>,
#> #   plant_height <chr>, original_name <chr>

If you would like to revert the bounded trait values, you have to use trait_pivot_longer first, then call separate_trait_values:

data_wide_bound %>% 
  trait_pivot_longer() %>% 
  separate_trait_values(., austraits$definitions)

#> # A tibble: 691 × 12
#>    dataset_id  taxon_name site_name context_name observation_id trait_name value
#>    <chr>       <chr>      <chr>     <chr>        <chr>          <chr>      <chr>
#>  1 Falster_20… Acacia my… Ku-ring-… <NA>         Falster_2003_… leaf_angle 66.1 
#>  2 Falster_20… Acacia my… Ku-ring-… <NA>         Falster_2003_… leaf_area  319  
#>  3 Falster_20… Acacia my… Ku-ring-… <NA>         Falster_2003_… leaf_comp… simp…
#>  4 Falster_20… Acacia su… Ku-ring-… <NA>         Falster_2003_… leaf_angle 71.7 
#>  5 Falster_20… Acacia su… Ku-ring-… <NA>         Falster_2003_… leaf_area  562  
#>  6 Falster_20… Acacia su… Ku-ring-… <NA>         Falster_2003_… leaf_comp… simp…
#>  7 Falster_20… Angophora… Ku-ring-… <NA>         Falster_2003_… leaf_angle 50.8 
#>  8 Falster_20… Angophora… Ku-ring-… <NA>         Falster_2003_… leaf_area  1590 
#>  9 Falster_20… Angophora… Ku-ring-… <NA>         Falster_2003_… leaf_comp… simp…
#> 10 Falster_20… Banksia m… Ku-ring-… <NA>         Falster_2003_… leaf_angle 53.1 
#> # ℹ 681 more rows
#> # ℹ 5 more variables: unit <chr>, date <chr>, value_type <fct>,
#> #   replicates <chr>, original_name <chr>
…
